{
  "coin_clipping":
  {
    "outcomes": ["heads", "tails"]
  },
  "8ball":
  {
    "outcomes": ["Yes, definitely!",
                "Without a doubt!",
          			"You may rely on it",
                "Yes!",
          			"Outlook good!",
          			"As I see it, yes",
          			"Hm, most likely!",
          			"How can I tell that, well, the signs point to yes in any case",
          			"I'm not sure right now, ask again later",
          			"I can't tell right now, sorry",
          			"Hm, better not tell you right now",
          			"Maybe yes, maybe no!",
          			"Let me think ... hmm ... no",
          			"Outlook doesn't look so good, sorry",
          			"That's very doubtful",
          			"My reply is no",
          			"Don't count on it"
                ]
  }
}